{
    "paths": [
        {
            "name": "/aricmetic",
            "lambdaFunction": "vueaws2c4c11141",
            "privacy": {
                "protected": true,
                "auth": [
                    "/POST",
                    "/GET",
                    "/PUT",
                    "/PATCH",
                    "/DELETE"
                ],
                "unauth": [
                    "/POST",
                    "/GET",
                    "/PUT",
                    "/PATCH"
                ]
            },
            "policyResourceName": "/aricmetic"
        },
        {
            "name": "/task",
            "lambdaFunction": "TodoLambda",
            "privacy": {
                "protected": true,
                "auth": [
                    "/POST",
                    "/GET",
                    "/PUT",
                    "/PATCH",
                    "/DELETE"
                ],
                "unauth": [
                    "/POST",
                    "/GET",
                    "/PUT",
                    "/PATCH",
                    "/DELETE"
                ]
            },
            "policyResourceName": "/task"
        }
    ],
    "resourceName": "vueaws2api10",
    "apiName": "vueaws2api10",
    "functionArns": [
        {
            "lambdaFunction": "vueaws2c4c11141"
        },
        {
            "lambdaFunction": "TodoLambda"
        }
    ],
    "privacy": {
        "auth": 2,
        "unauth": 2,
        "authRoleName": "amplify-vueaws2-dev-10201-authRole",
        "unAuthRoleName": "amplify-vueaws2-dev-10201-unauthRole"
    },
    "dependsOn": [
        {
            "category": "function",
            "resourceName": "vueaws2c4c11141",
            "attributes": [
                "Name",
                "Arn"
            ]
        },
        {
            "category": "function",
            "resourceName": "TodoLambda",
            "attributes": [
                "Name",
                "Arn"
            ]
        }
    ],
    "uuid": "27321adc"
}