{
  "auth": {
    "vueaws258e6b7ce": {
      "service": "Cognito",
      "providerPlugin": "awscloudformation",
      "dependsOn": [],
      "customAuth": false
    }
  },
  "function": {
    "vueaws2c4c11141": {
      "build": true,
      "providerPlugin": "awscloudformation",
      "service": "Lambda"
    },
    "TodoLambda": {
      "build": true,
      "providerPlugin": "awscloudformation",
      "service": "Lambda",
      "dependsOn": [
        {
          "category": "storage",
          "resourceName": "Todo",
          "attributes": [
            "Name",
            "Arn"
          ]
        }
      ]
    }
  },
  "api": {
    "vueaws2api10": {
      "service": "API Gateway",
      "providerPlugin": "awscloudformation",
      "dependsOn": [
        {
          "category": "function",
          "resourceName": "vueaws2c4c11141",
          "attributes": [
            "Name",
            "Arn"
          ]
        },
        {
          "category": "function",
          "resourceName": "TodoLambda",
          "attributes": [
            "Name",
            "Arn"
          ]
        }
      ]
    }
  },
  "storage": {
    "Todo": {
      "service": "DynamoDB",
      "providerPlugin": "awscloudformation"
    }
  }
}